SurveySponsorCaseID,PRODUCTION_TYPE,RI_MODE,SOLICITATION_ID,SELECTION_TYPE,REWORK_SELECTION_TYPE,RESPONDENT_FIRST_NAME,RESPONDENT_MIDDLE_NAME,RESPONDENT_LAST_NAME,RESPONDENT_PHONE_NUMBER,RESPONDENT_LANGUAGE,RESPONDENT_TYPE,RESPONDENT_ADR_TYPE_CODE,RESPONDENT_ADR_HU_TYPE_CODE,RESPONDENT_ADR_STNU_TEXT,RESPONDENT_ADR_STNM_TEXT,RESPONDENT_ADR_LOC_DESC_TEXT,RESPONDENT_ADR_RR_DESC_TEXT,RESPONDENT_ADR_RR_NUM_TEXT,RESPONDENT_ADR_RR_BOX_NUM_TEXT,RESPONDENT_ADR_CITY_TEXT,RESPONDENT_ADR_STATE_ABBR,RESPONDENT_ADR_ZIP_TEXT,RESPONDENT_ADR_ZIP_EXT_TEXT,RESPONDENT_ADR_MULTIUNIT_CNT,RESPONDENT_ADR_UNIT_NAME,RESPONDENT_ADR_UNIT_TEXT,MAF_ADR_TYPE_CODE,MAF_ADR_HU_TYPE_CODE,MAF_ADR_STNU_TEXT,MAF_ADR_STNM_TEXT,MAF_ADR_LOC_DESC_TEXT,MAF_ADR_RR_DESC_TEXT,MAF_ADR_RR_NUM_TEXT,MAF_ADR_RR_BOX_NUM_TEXT,MAF_ADR_CITY_TEXT,MAF_ADR_STATE_ABBR,MAF_ADR_ZIP_TEXT,MAF_ADR_ZIP_EXT_TEXT,MAF_ADR_MULTIUNIT_CNT,MAF_ADR_UNIT_NAME,MAF_ADR_UNIT_TEXT,ATT_REINTERVIEWATTEMPTTYPE,DATE_OF_CONTACT,RES_GPS_LAT,RES_GPS_LON,APPLICANT_ID,CASE_NOTES
188354795963,OI,field,188354795963,1,2,Paula,Allegra,Mathews,4017255358,1,proxy,1,1,1,FAIR OAKS CT N ,simulated data,,,,GREENVILLE,RI,02828,,1,,,1,1,,3 FAIR OAKS CT N,simulated data,,,,GREENVILLE,RI,02828,,1,,,PV,2019-04-02 16:18:32.553135,41.860535,-71.571495,028280015,
188354795862,OI,field,188354795963,1,2,Jonh,J.,Shaft,4017255358,1,proxy,1,1,1,FAIR OAKS CT N ,simulated data,,,,GREENVILLE,RI,02828,,1,,,1,1,,3 FAIR OAKS CT N,simulated data,,,,GREENVILLE,RI,02828,,1,,,PV,2019-04-02 16:18:32.553135,41.860535,-71.571495,028280015,
188354795963,OI,field,188354795963,1,2,Paula,Allegra,Mathews,4017255358,1,proxy,1,1,1,FAIR OAKS CT N ,simulated data,,,,GREENVILLE,RI,02828,,1,,,1,1,,3 FAIR OAKS CT N,simulated data,,,,GREENVILLE,RI,02828,,1,,,PV,2019-04-02 16:18:32.553135,41.860535,-71.571495,028280015,
188354795862,OI,field,188354795963,1,2,Jonh,J.,Shaft,4017255358,1,proxy,1,1,1,FAIR OAKS CT N ,simulated data,,,,GREENVILLE,RI,02828,,1,,,1,1,,3 FAIR OAKS CT N,simulated data,,,,GREENVILLE,RI,02828,,1,,,PV,2019-04-02 16:18:32.553135,41.860535,-71.571495,028280015,
188354795963,OI,field,188354795963,1,2,Paula,Allegra,Mathews,4017255358,1,proxy,1,1,1,FAIR OAKS CT N ,simulated data,,,,GREENVILLE,RI,02828,,1,,,1,1,,3 FAIR OAKS CT N,simulated data,,,,GREENVILLE,RI,02828,,1,,,PV,2019-04-02 16:18:32.553135,41.860535,-71.571495,028280015,
188354795862,OI,field,188354795963,1,2,Jonh,J.,Shaft,4017255358,1,proxy,1,1,1,FAIR OAKS CT N ,simulated data,,,,GREENVILLE,RI,02828,,1,,,1,1,,3 FAIR OAKS CT N,simulated data,,,,GREENVILLE,RI,02828,,1,,,PV,2019-04-02 16:18:32.553135,41.860535,-71.571495,028280015,
188354795963,OI,field,188354795963,1,2,Paula,Allegra,Mathews,4017255358,1,proxy,1,1,1,FAIR OAKS CT N ,simulated data,,,,GREENVILLE,RI,02828,,1,,,1,1,,3 FAIR OAKS CT N,simulated data,,,,GREENVILLE,RI,02828,,1,,,PV,2019-04-02 16:18:32.553135,41.860535,-71.571495,028280015,
188354795862,OI,field,188354795963,1,2,Jonh,J.,Shaft,4017255358,1,proxy,1,1,1,FAIR OAKS CT N ,simulated data,,,,GREENVILLE,RI,02828,,1,,,1,1,,3 FAIR OAKS CT N,simulated data,,,,GREENVILLE,RI,02828,,1,,,PV,2019-04-02 16:18:32.553135,41.860535,-71.571495,028280015,
188354795963,OI,field,188354795963,1,2,Paula,Allegra,Mathews,4017255358,1,proxy,1,1,1,FAIR OAKS CT N ,simulated data,,,,GREENVILLE,RI,02828,,1,,,1,1,,3 FAIR OAKS CT N,simulated data,,,,GREENVILLE,RI,02828,,1,,,PV,2019-04-02 16:18:32.553135,41.860535,-71.571495,028280015,
188354795862,OI,field,188354795963,1,2,Jonh,J.,Shaft,4017255358,1,proxy,1,1,1,FAIR OAKS CT N ,simulated data,,,,GREENVILLE,RI,02828,,1,,,1,1,,3 FAIR OAKS CT N,simulated data,,,,GREENVILLE,RI,02828,,1,,,PV,2019-04-02 16:18:32.553135,41.860535,-71.571495,028280015,
188354795963,OI,field,188354795963,1,2,Paula,Allegra,Mathews,4017255358,1,proxy,1,1,1,FAIR OAKS CT N ,simulated data,,,,GREENVILLE,RI,02828,,1,,,1,1,,3 FAIR OAKS CT N,simulated data,,,,GREENVILLE,RI,02828,,1,,,PV,2019-04-02 16:18:32.553135,41.860535,-71.571495,028280015,
188354795862,OI,field,188354795963,1,2,Jonh,J.,Shaft,4017255358,1,proxy,1,1,1,FAIR OAKS CT N ,simulated data,,,,GREENVILLE,RI,02828,,1,,,1,1,,3 FAIR OAKS CT N,simulated data,,,,GREENVILLE,RI,02828,,1,,,PV,2019-04-02 16:18:32.553135,41.860535,-71.571495,028280015,
188354795963,OI,field,188354795963,1,2,Paula,Allegra,Mathews,4017255358,1,proxy,1,1,1,FAIR OAKS CT N ,simulated data,,,,GREENVILLE,RI,02828,,1,,,1,1,,3 FAIR OAKS CT N,simulated data,,,,GREENVILLE,RI,02828,,1,,,PV,2019-04-02 16:18:32.553135,41.860535,-71.571495,028280015,
188354795862,OI,field,188354795963,1,2,Jonh,J.,Shaft,4017255358,1,proxy,1,1,1,FAIR OAKS CT N ,simulated data,,,,GREENVILLE,RI,02828,,1,,,1,1,,3 FAIR OAKS CT N,simulated data,,,,GREENVILLE,RI,02828,,1,,,PV,2019-04-02 16:18:32.553135,41.860535,-71.571495,028280015,
188354795963,OI,field,188354795963,1,2,Paula,Allegra,Mathews,4017255358,1,proxy,1,1,1,FAIR OAKS CT N ,simulated data,,,,GREENVILLE,RI,02828,,1,,,1,1,,3 FAIR OAKS CT N,simulated data,,,,GREENVILLE,RI,02828,,1,,,PV,2019-04-02 16:18:32.553135,41.860535,-71.571495,028280015,
188354795862,OI,field,188354795963,1,2,Jonh,J.,Shaft,4017255358,1,proxy,1,1,1,FAIR OAKS CT N ,simulated data,,,,GREENVILLE,RI,02828,,1,,,1,1,,3 FAIR OAKS CT N,simulated data,,,,GREENVILLE,RI,02828,,1,,,PV,2019-04-02 16:18:32.553135,41.860535,-71.571495,028280015,
188354795963,OI,field,188354795963,1,2,Paula,Allegra,Mathews,4017255358,1,proxy,1,1,1,FAIR OAKS CT N ,simulated data,,,,GREENVILLE,RI,02828,,1,,,1,1,,3 FAIR OAKS CT N,simulated data,,,,GREENVILLE,RI,02828,,1,,,PV,2019-04-02 16:18:32.553135,41.860535,-71.571495,028280015,
188354795862,OI,field,188354795963,1,2,Jonh,J.,Shaft,4017255358,1,proxy,1,1,1,FAIR OAKS CT N ,simulated data,,,,GREENVILLE,RI,02828,,1,,,1,1,,3 FAIR OAKS CT N,simulated data,,,,GREENVILLE,RI,02828,,1,,,PV,2019-04-02 16:18:32.553135,41.860535,-71.571495,028280015,
188354795963,OI,field,188354795963,1,2,Paula,Allegra,Mathews,4017255358,1,proxy,1,1,1,FAIR OAKS CT N ,simulated data,,,,GREENVILLE,RI,02828,,1,,,1,1,,3 FAIR OAKS CT N,simulated data,,,,GREENVILLE,RI,02828,,1,,,PV,2019-04-02 16:18:32.553135,41.860535,-71.571495,028280015,
188354795862,OI,field,188354795963,1,2,Jonh,J.,Shaft,4017255358,1,proxy,1,1,1,FAIR OAKS CT N ,simulated data,,,,GREENVILLE,RI,02828,,1,,,1,1,,3 FAIR OAKS CT N,simulated data,,,,GREENVILLE,RI,02828,,1,,,PV,2019-04-02 16:18:32.553135,41.860535,-71.571495,028280015,
188354795963,OI,field,188354795963,1,2,Paula,Allegra,Mathews,4017255358,1,proxy,1,1,1,FAIR OAKS CT N ,simulated data,,,,GREENVILLE,RI,02828,,1,,,1,1,,3 FAIR OAKS CT N,simulated data,,,,GREENVILLE,RI,02828,,1,,,PV,2019-04-02 16:18:32.553135,41.860535,-71.571495,028280015,
188354795862,OI,field,188354795963,1,2,Jonh,J.,Shaft,4017255358,1,proxy,1,1,1,FAIR OAKS CT N ,simulated data,,,,GREENVILLE,RI,02828,,1,,,1,1,,3 FAIR OAKS CT N,simulated data,,,,GREENVILLE,RI,02828,,1,,,PV,2019-04-02 16:18:32.553135,41.860535,-71.571495,028280015,
188354795963,OI,field,188354795963,1,2,Paula,Allegra,Mathews,4017255358,1,proxy,1,1,1,FAIR OAKS CT N ,simulated data,,,,GREENVILLE,RI,02828,,1,,,1,1,,3 FAIR OAKS CT N,simulated data,,,,GREENVILLE,RI,02828,,1,,,PV,2019-04-02 16:18:32.553135,41.860535,-71.571495,028280015,
188354795862,OI,field,188354795963,1,2,Jonh,J.,Shaft,4017255358,1,proxy,1,1,1,FAIR OAKS CT N ,simulated data,,,,GREENVILLE,RI,02828,,1,,,1,1,,3 FAIR OAKS CT N,simulated data,,,,GREENVILLE,RI,02828,,1,,,PV,2019-04-02 16:18:32.553135,41.860535,-71.571495,028280015,